[
  {
    "patient_id": 1,
    "patientName": "Hydrogen",
    "weight": 1.0079,
    "symbol": "H",
    "facilityName": "Agapito Nursing Home",
    "reviewOpen": "2021-07-25T06:49:10.288Z",
    "time": "2021-07-24T01:49:10.288Z",
    "cycleDate": "2021-07-22T06:49:10.288Z",
    "mrs": "17",
    "indicators": ["NTS", "CHG"]
  },
  {
    "patient_id": 2,
    "patientName": "Helium",
    "weight": 4.0026,
    "symbol": "He",
    "facilityName": "Agapito Nursing Home",
    "reviewOpen": "2021-07-25T06:49:10.288Z",
    "time": "2021-07-25T03:49:10.288Z",
    "cycleDate": "2021-07-22T06:49:10.288Z",
    "mrs": "17",
    "indicators": []
  },
  {
    "patient_id": 3,
    "patientName": "Lithium",
    "weight": 6.941,
    "symbol": "Li",
    "facilityName": "Agapito Nursing Home",
    "reviewOpen": "2021-07-25T06:49:10.288Z",
    "time": "2021-07-20T06:49:10.288Z",
    "cycleDate": "2021-07-22T06:49:10.288Z",
    "mrs": "17",
    "indicators": []
  },
  {
    "patient_id": 4,
    "patientName": "Beryllium",
    "weight": 9.0122,
    "symbol": "Be",
    "facilityName": "Agapito Nursing Home",
    "reviewOpen": "2021-07-25T06:49:10.288Z",
    "time": "2021-07-20T06:49:10.288Z",
    "cycleDate": "2021-07-22T06:49:10.288Z",
    "mrs": "17",
    "indicators": ["ADM"]
  },
  {
    "patient_id": 5,
    "patientName": "Boron",
    "weight": 10.811,
    "symbol": "B",
    "facilityName": "Agapito Nursing Home",
    "reviewOpen": "2021-07-25T06:49:10.288Z",
    "time": "2021-07-20T06:49:10.288Z",
    "cycleDate": "2021-07-22T06:49:10.288Z",
    "mrs": "17",
    "indicators": []
  },
  {
    "patient_id": 6,
    "patientName": "Carbon",
    "weight": 12.0107,
    "symbol": "C",
    "facilityName": "Agapito Nursing Home",
    "reviewOpen": "2021-07-25T06:49:10.288Z",
    "time": "2021-07-20T06:49:10.288Z",
    "cycleDate": "2021-07-22T06:49:10.288Z",
    "mrs": "17",
    "indicators": ["READM"]
  },
  {
    "patient_id": 7,
    "patientName": "Nitrogen",
    "weight": 14.0067,
    "symbol": "N",
    "facilityName": "Agapito Nursing Home",
    "reviewOpen": "2021-07-25T06:49:10.288Z",
    "time": "2021-07-20T06:49:10.288Z",
    "cycleDate": "2021-07-22T06:49:10.288Z",
    "mrs": "17",
    "indicators": []
  }
]
