<svg width="27" height="27" viewBox="0 0 27 27" fill="none" xmlns="http://www.w3.org/2000/svg">
<path d="M13.5 23.625C19.0919 23.625 23.625 19.0919 23.625 13.5C23.625 7.90812 19.0919 3.375 13.5 3.375C7.90812 3.375 3.375 7.90812 3.375 13.5C3.375 19.0919 7.90812 23.625 13.5 23.625Z" stroke="#F64E60"/>
<path d="M13.05 8.09998H13.95L13.5 14.625L13.05 8.09998Z" stroke="#F64E60" stroke-linejoin="round"/>
<path d="M13.5 19.8C14.2455 19.8 14.85 19.1956 14.85 18.45C14.85 17.7044 14.2455 17.1 13.5 17.1C12.7544 17.1 12.15 17.7044 12.15 18.45C12.15 19.1956 12.7544 19.8 13.5 19.8Z" fill="#F64E60"/>
</svg>
